3 Breakpoints – Stream Temperature by Flow
…
Code

siteinfo_sp <- st_as_sf(siteinfo, coords = c("long", "lat"), crs = 4326)
mapview(siteinfo_sp, zcol = "designation")

Load flow and temp data

Code

dat <- read_csv("data/EcoDrought_FlowTempData_DailyWeekly.csv")
dat

# A tibble: 202,014 × 31
   station_no site_name      site_id basin   subbasin region   lat  long elev_ft
   <chr>      <chr>          <chr>   <chr>   <chr>    <chr>  <dbl> <dbl>   <dbl>
 1 12355347   Big Creek NWIS BIG     Flathe… Big Cre… Flat    48.6 -114.   3528.
 2 12355347   Big Creek NWIS BIG     Flathe… Big Cre… Flat    48.6 -114.   3528.
 3 12355347   Big Creek NWIS BIG     Flathe… Big Cre… Flat    48.6 -114.   3528.
 4 12355347   Big Creek NWIS BIG     Flathe… Big Cre… Flat    48.6 -114.   3528.
 5 12355347   Big Creek NWIS BIG     Flathe… Big Cre… Flat    48.6 -114.   3528.
 6 12355347   Big Creek NWIS BIG     Flathe… Big Cre… Flat    48.6 -114.   3528.
 7 12355347   Big Creek NWIS BIG     Flathe… Big Cre… Flat    48.6 -114.   3528.
 8 12355347   Big Creek NWIS BIG     Flathe… Big Cre… Flat    48.6 -114.   3528.
 9 12355347   Big Creek NWIS BIG     Flathe… Big Cre… Flat    48.6 -114.   3528.
10 12355347   Big Creek NWIS BIG     Flathe… Big Cre… Flat    48.6 -114.   3528.
# ℹ 202,004 more rows
# ℹ 22 more variables: area_sqmi <dbl>, designation <chr>, date <date>,
#   DischargeReliability <dbl>, TempReliability <dbl>, flow_mean <dbl>,
#   flow_min <dbl>, flow_max <dbl>, tempc_mean <dbl>, tempc_min <dbl>,
#   tempc_max <dbl>, flow_mean_filled <dbl>, flow_mean_cms <dbl>,
#   flow_mean_filled_cms <dbl>, area_sqkm <dbl>, Yield_mm <dbl>,
#   Yield_filled_mm <dbl>, flow_mean_7 <dbl>, flow_mean_filled_7 <dbl>, …
…
Cut out all days with missing temp records

Code

dat <- dat %>% filter(!is.na(tempc_mean))
dat

# A tibble: 100,229 × 12
   site_name  basin date       flow_mean tempc_mean tempc_min tempc_max Yield_mm
   <chr>      <chr> <date>         <dbl>      <dbl>     <dbl>     <dbl>    <dbl>
 1 Avery Bro… West… 2020-01-08      5.96     0.594      0.111     1.11      1.99
 2 Avery Bro… West… 2020-01-09      4.81     0.0336     0         0.111     1.61
 3 Avery Bro… West… 2020-01-10      4.88     0.363      0         0.778     1.63
 4 Avery Bro… West… 2020-01-11      6.43     1.77       0.778     2.39      2.15
 5 Avery Bro… West… 2020-01-12     21.2      2.81       2.11      3.78      7.08
 6 Avery Bro… West… 2020-01-13     14.3      1.92       1.56      2.22      4.78
 7 Avery Bro… West… 2020-01-14      9.88     2.34       1.89      2.83      3.30
 8 Avery Bro… West… 2020-01-15      9.68     2.66       2.11      3.06      3.23
 9 Avery Bro… West… 2020-01-16      9.60     1.82       1.11      2.39      3.20
10 Avery Bro… West… 2020-01-17      7.92     0.0463    -0.111     1.11      2.64
# ℹ 100,219 more rows
# ℹ 4 more variables: lat <dbl>, long <dbl>, area_sqmi <dbl>, elev_ft <dbl>

Fill missing dates using fasstr

Code

dat <- fill_missing_dates(dat, dates = date, groups = site_name, pad_ends = TRUE)
dat

# A tibble: 171,661 × 12
   site_name  basin date       flow_mean tempc_mean tempc_min tempc_max Yield_mm
   <chr>      <chr> <date>         <dbl>      <dbl>     <dbl>     <dbl>    <dbl>
 1 Avery Bro… <NA>  2020-01-01     NA       NA         NA        NA        NA   
 2 Avery Bro… <NA>  2020-01-02     NA       NA         NA        NA        NA   
 3 Avery Bro… <NA>  2020-01-03     NA       NA         NA        NA        NA   
 4 Avery Bro… <NA>  2020-01-04     NA       NA         NA        NA        NA   
 5 Avery Bro… <NA>  2020-01-05     NA       NA         NA        NA        NA   
 6 Avery Bro… <NA>  2020-01-06     NA       NA         NA        NA        NA   
 7 Avery Bro… <NA>  2020-01-07     NA       NA         NA        NA        NA   
 8 Avery Bro… West… 2020-01-08      5.96     0.594      0.111     1.11      1.99
 9 Avery Bro… West… 2020-01-09      4.81     0.0336     0         0.111     1.61
10 Avery Bro… West… 2020-01-10      4.88     0.363      0         0.778     1.63
# ℹ 171,651 more rows
# ℹ 4 more variables: lat <dbl>, long <dbl>, area_sqmi <dbl>, elev_ft <dbl>
…
# Order by group and date
dat_index <- dat_index[order(dat_index$site_name, dat_index$year, dat_index$yday),]

# For checking the order of e
dat_index$count <- 1:length(dat_index$year)

# Define the site/year ID
dat_index$siteYear <- paste(dat_index$site_name, dat_index$year, sep = '_')

# Maintain order
dat_index <- dat_index[order(dat_index$count),]

dat_index

# A tibble: 167,535 × 22
   site_name  basin date       flow_mean tempc_mean tempc_min tempc_max Yield_mm
   <chr>      <chr> <date>         <dbl>      <dbl>     <dbl>     <dbl>    <dbl>
 1 Avery Bro… <NA>  2020-01-01     NA       NA         NA        NA        NA   
 2 Avery Bro… <NA>  2020-01-02     NA       NA         NA        NA        NA   
 3 Avery Bro… <NA>  2020-01-03     NA       NA         NA        NA        NA   
 4 Avery Bro… <NA>  2020-01-04     NA       NA         NA        NA        NA   
 5 Avery Bro… <NA>  2020-01-05     NA       NA         NA        NA        NA   
 6 Avery Bro… <NA>  2020-01-06     NA       NA         NA        NA        NA   
 7 Avery Bro… <NA>  2020-01-07     NA       NA         NA        NA        NA   
 8 Avery Bro… West… 2020-01-08      5.96     0.594      0.111     1.11      1.99
 9 Avery Bro… West… 2020-01-09      4.81     0.0336     0         0.111     1.61
10 Avery Bro… West… 2020-01-10      4.88     0.363      0         0.778     1.63
# ℹ 167,525 more rows
# ℹ 14 more variables: lat <dbl>, long <dbl>, area_sqmi <dbl>, elev_ft <dbl>,
#   yday <dbl>, air_temp_mean <dbl>, precip_mmday <dbl>, swe_kgm2 <dbl>,
#   daylength_sec <dbl>, shortrad_wm2 <dbl>, index <dbl>, year <dbl>,
#   count <int>, siteYear <chr>
…
