Stream Temperature by Flow - 4 Format Data
…
View Source

Purpose: Format data for modeling in JAGS

4.1 Base data

Temperature and flow data

Code
dat <- read_csv("data/EcoDrought_FlowTempData_DailyWeekly_clean.csv")
dat

# A tibble: 183,960 × 42
   station_no site_name   site_id basin      subbasin region   lat  long elev_ft
   <chr>      <chr>       <chr>   <chr>      <chr>    <chr>  <dbl> <dbl>   <dbl>
 1 <NA>       Avery Brook <NA>    <NA>       <NA>     <NA>    NA    NA       NA 
 2 <NA>       Avery Brook <NA>    <NA>       <NA>     <NA>    NA    NA       NA 
 3 <NA>       Avery Brook <NA>    <NA>       <NA>     <NA>    NA    NA       NA 
 4 <NA>       Avery Brook <NA>    <NA>       <NA>     <NA>    NA    NA       NA 
 5 <NA>       Avery Brook <NA>    <NA>       <NA>     <NA>    NA    NA       NA 
 6 <NA>       Avery Brook <NA>    <NA>       <NA>     <NA>    NA    NA       NA 
 7 <NA>       Avery Brook <NA>    <NA>       <NA>     <NA>    NA    NA       NA 
 8 01171000   Avery Brook AB      West Brook West Br… Mass    42.4 -72.7    699.
 9 01171000   Avery Brook AB      West Brook West Br… Mass    42.4 -72.7    699.
10 01171000   Avery Brook AB      West Brook West Br… Mass    42.4 -72.7    699.
# ℹ 183,950 more rows
# ℹ 33 more variables: area_sqmi <dbl>, designation <chr>, date <date>,
#   DischargeReliability <dbl>, TempReliability <dbl>, flow_mean <dbl>,
#   flow_min <dbl>, flow_max <dbl>, tempc_mean <dbl>, tempc_min <dbl>,
#   tempc_max <dbl>, flow_mean_filled <dbl>, flow_mean_cms <dbl>,
#   flow_mean_filled_cms <dbl>, area_sqkm <dbl>, Yield_mm <dbl>,
#   Yield_filled_mm <dbl>, flow_mean_7 <dbl>, flow_mean_filled_7 <dbl>, …
…
dat <- dat %>% 
  select(-c(basin, lat, long, elev_ft, area_sqmi)) %>% 
  left_join(mysitebasins) %>% 
  select(site_name, basin, lat, long, elev_ft, area_sqmi, date, yday, year, siteYear, 
         tempc_mean, tempc_min, tempc_max, flow_mean, Yield_mm, air_temp_mean, precip_mmday, swe_kgm2, daylength_sec, shortrad_wm2)

dat

# A tibble: 183,960 × 20
   site_name basin   lat  long elev_ft area_sqmi date        yday  year siteYear
   <chr>     <chr> <dbl> <dbl>   <dbl>     <dbl> <date>     <dbl> <dbl> <chr>   
 1 Avery Br… West…  42.4 -72.7    699.      2.83 2020-01-01     1  2020 Avery B…
 2 Avery Br… West…  42.4 -72.7    699.      2.83 2020-01-02     2  2020 Avery B…
 3 Avery Br… West…  42.4 -72.7    699.      2.83 2020-01-03     3  2020 Avery B…
 4 Avery Br… West…  42.4 -72.7    699.      2.83 2020-01-04     4  2020 Avery B…
 5 Avery Br… West…  42.4 -72.7    699.      2.83 2020-01-05     5  2020 Avery B…
 6 Avery Br… West…  42.4 -72.7    699.      2.83 2020-01-06     6  2020 Avery B…
 7 Avery Br… West…  42.4 -72.7    699.      2.83 2020-01-07     7  2020 Avery B…
 8 Avery Br… West…  42.4 -72.7    699.      2.83 2020-01-08     8  2020 Avery B…
 9 Avery Br… West…  42.4 -72.7    699.      2.83 2020-01-09     9  2020 Avery B…
10 Avery Br… West…  42.4 -72.7    699.      2.83 2020-01-10    10  2020 Avery B…
# ℹ 183,950 more rows
# ℹ 10 more variables: tempc_mean <dbl>, tempc_min <dbl>, tempc_max <dbl>,
#   flow_mean <dbl>, Yield_mm <dbl>, air_temp_mean <dbl>, precip_mmday <dbl>,
#   swe_kgm2 <dbl>, daylength_sec <dbl>, shortrad_wm2 <dbl>
…
# calculate lagged air temp
dat <- dat %>%
  group_by(site_name) %>%
  mutate(air_temp_mean_lag1 = lag(air_temp_mean, 1),
         air_temp_mean_lag2 = lag(air_temp_mean, 2)) %>%
  ungroup()

Breakpoints

Code
springFallBPs <- read_csv("data/breakpoints.csv") %>% 
  mutate(basin = recode(basin, "Shields River" = "Yellowstone"))
springFallBPs

# A tibble: 459 × 9
   basin   site_name  year finalSpringBP sourceSpringBP finalFallBP sourceFallBP
   <chr>   <chr>     <dbl>         <dbl> <chr>                <dbl> <chr>       
 1 West B… Avery Br…  2020          66   directly calc…        300  directly ca…
 2 West B… Avery Br…  2021          93   directly calc…        304  directly ca…
 3 West B… Avery Br…  2022          94   directly calc…        313  directly ca…
 4 West B… Avery Br…  2023          79   directly calc…        300. site mean   
 5 West B… Avery Br…  2024          97   directly calc…        282  directly ca…
 6 West B… Sanderso…  2019          83.2 site mean             300  site mean   
 7 West B… Sanderso…  2020          66   directly calc…        301  directly ca…
 8 West B… Sanderso…  2021          80   directly calc…        303  directly ca…
 9 West B… Sanderso…  2022          94   directly calc…        313  directly ca…
10 West B… Sanderso…  2023          78   directly calc…        302  directly ca…
# ℹ 449 more rows
# ℹ 2 more variables: quantileLo <dbl>, quantileHi <dbl>

Join temp/flow data with breakpoints and filter to days within synchronized period.

Code
dat_bp <- dat %>% 
  left_join(springFallBPs) %>%
  filter(yday >= finalSpringBP & yday <= finalFallBP)
dat_bp

# A tibble: 81,424 × 28
   site_name basin   lat  long elev_ft area_sqkm date        yday  year siteYear
   <chr>     <chr> <dbl> <dbl>   <dbl>     <dbl> <date>     <dbl> <dbl> <chr>   
 1 Avery Br… West…  42.4 -72.7    699.      7.34 2020-03-06    66  2020 Avery B…
 2 Avery Br… West…  42.4 -72.7    699.      7.34 2020-03-07    67  2020 Avery B…
 3 Avery Br… West…  42.4 -72.7    699.      7.34 2020-03-08    68  2020 Avery B…
 4 Avery Br… West…  42.4 -72.7    699.      7.34 2020-03-09    69  2020 Avery B…
 5 Avery Br… West…  42.4 -72.7    699.      7.34 2020-03-10    70  2020 Avery B…
 6 Avery Br… West…  42.4 -72.7    699.      7.34 2020-03-11    71  2020 Avery B…
 7 Avery Br… West…  42.4 -72.7    699.      7.34 2020-03-12    72  2020 Avery B…
 8 Avery Br… West…  42.4 -72.7    699.      7.34 2020-03-13    73  2020 Avery B…
 9 Avery Br… West…  42.4 -72.7    699.      7.34 2020-03-14    74  2020 Avery B…
10 Avery Br… West…  42.4 -72.7    699.      7.34 2020-03-15    75  2020 Avery B…
# ℹ 81,414 more rows
# ℹ 18 more variables: tempc_mean <dbl>, tempc_min <dbl>, tempc_max <dbl>,
#   flow_mean <dbl>, Yield_mm <dbl>, air_temp_mean <dbl>, precip_mmday <dbl>,
#   swe_kgm2 <dbl>, daylength_sec <dbl>, shortrad_wm2 <dbl>,
#   air_temp_mean_lag1 <dbl>, air_temp_mean_lag2 <dbl>, finalSpringBP <dbl>,
#   sourceSpringBP <chr>, finalFallBP <dbl>, sourceFallBP <chr>,
#   quantileLo <dbl>, quantileHi <dbl>
…
