6 ModelTemp - EcoDrought – Stream Temperature by Flow
…
Also set flow = NA to 0. Probably should change this to latent variable in model, especially when expanding to sites where flow data is more rare

Code

dat <- read_csv("data/EcoDrought_FlowTempData_formatted.csv") %>% 
  filter(basin == "Snake River") %>%
  mutate(rowNum = 1:nrow(.),
         site_code = as.numeric(as.factor(site_name)),
         year_code = year - min(year) + 1) %>%
  filter(!is.na(tempc_mean)) %>%
  mutate(z_Yield_mm_log = ifelse(is.na(z_Yield_mm_log), 0, z_Yield_mm_log))
dat

# A tibble: 12,184 × 38
   site_name basin   lat  long elev_ft area_sqmi date        yday  year siteYear
   <chr>     <chr> <dbl> <dbl>   <dbl>     <dbl> <date>     <dbl> <dbl> <chr>   
 1 Grizzly … Snak…  43.8 -110.   8340.      12.7 2018-07-03   184  2018 Grizzly…
 2 Grizzly … Snak…  43.8 -110.   8340.      12.7 2018-07-04   185  2018 Grizzly…
 3 Grizzly … Snak…  43.8 -110.   8340.      12.7 2018-07-05   186  2018 Grizzly…
 4 Grizzly … Snak…  43.8 -110.   8340.      12.7 2018-07-06   187  2018 Grizzly…
 5 Grizzly … Snak…  43.8 -110.   8340.      12.7 2018-07-07   188  2018 Grizzly…
 6 Grizzly … Snak…  43.8 -110.   8340.      12.7 2018-07-08   189  2018 Grizzly…
 7 Grizzly … Snak…  43.8 -110.   8340.      12.7 2018-07-09   190  2018 Grizzly…
 8 Grizzly … Snak…  43.8 -110.   8340.      12.7 2018-07-10   191  2018 Grizzly…
 9 Grizzly … Snak…  43.8 -110.   8340.      12.7 2018-07-11   192  2018 Grizzly…
10 Grizzly … Snak…  43.8 -110.   8340.      12.7 2018-07-12   193  2018 Grizzly…
# ℹ 12,174 more rows
# ℹ 28 more variables: tempc_mean <dbl>, tempc_min <dbl>, tempc_max <dbl>,
#   flow_mean <dbl>, Yield_mm <dbl>, air_temp_mean <dbl>, precip_mmday <dbl>,
#   swe_kgm2 <dbl>, daylength_sec <dbl>, shortrad_wm2 <dbl>,
#   Yield_mm_log <dbl>, flow_mean_log <dbl>, z_Yield_mm_log <dbl>,
#   z_air_temp_mean <dbl>, air_temp_mean_lag1 <dbl>, air_temp_mean_lag2 <dbl>,
#   z_air_temp_mean_lag1 <dbl>, z_air_temp_mean_lag2 <dbl>, …
…
