Stream Temperature by Flow - 5 ModelTemp
…
  filter(basin == "Snake River",
         year == 2020) %>%
  mutate(Yield_mm_log = log(Yield_mm + 0.00001),
         flow_mean_log = log(flow_mean + 0.00001),
         rowNum = 1:nrow(.)) %>%
  #group_by(site_name) %>%
  mutate(z_Yield_mm_log = scale(Yield_mm_log, center = TRUE, scale = TRUE),
         z_air_temp_mean = scale(air_temp_mean, center = TRUE, scale = TRUE)) %>%
  #ungroup() %>%
  mutate(z_Yield_mm_log = ifelse(is.na(z_Yield_mm_log), 0, z_Yield_mm_log),
         site_code = as.numeric(as.factor(site_name)),
         year_code = year - min(year) + 1) 
dat

# A tibble: 1,570 × 36
   site_name basin   lat  long elev_ft area_sqkm date        yday  year siteYear
   <chr>     <chr> <dbl> <dbl>   <dbl>     <dbl> <date>     <dbl> <dbl> <chr>   
 1 Grizzly … Snak…  43.8 -110.   8340.      32.8 2020-05-05   126  2020 Grizzly…
 2 Grizzly … Snak…  43.8 -110.   8340.      32.8 2020-05-06   127  2020 Grizzly…
 3 Grizzly … Snak…  43.8 -110.   8340.      32.8 2020-05-07   128  2020 Grizzly…
 4 Grizzly … Snak…  43.8 -110.   8340.      32.8 2020-05-08   129  2020 Grizzly…
 5 Grizzly … Snak…  43.8 -110.   8340.      32.8 2020-05-09   130  2020 Grizzly…
 6 Grizzly … Snak…  43.8 -110.   8340.      32.8 2020-05-10   131  2020 Grizzly…
 7 Grizzly … Snak…  43.8 -110.   8340.      32.8 2020-05-11   132  2020 Grizzly…
 8 Grizzly … Snak…  43.8 -110.   8340.      32.8 2020-05-12   133  2020 Grizzly…
 9 Grizzly … Snak…  43.8 -110.   8340.      32.8 2020-05-13   134  2020 Grizzly…
10 Grizzly … Snak…  43.8 -110.   8340.      32.8 2020-05-14   135  2020 Grizzly…
# ℹ 1,560 more rows
# ℹ 26 more variables: tempc_mean <dbl>, tempc_min <dbl>, tempc_max <dbl>,
#   flow_mean <dbl>, Yield_mm <dbl>, air_temp_mean <dbl>, precip_mmday <dbl>,
#   swe_kgm2 <dbl>, daylength_sec <dbl>, shortrad_wm2 <dbl>,
#   air_temp_mean_lag1 <dbl>, air_temp_mean_lag2 <dbl>, finalSpringBP <dbl>,
#   sourceSpringBP <chr>, finalFallBP <dbl>, sourceFallBP <chr>,
#   quantileLo <dbl>, quantileHi <dbl>, site_code <dbl>, basin_code <dbl>, …
…
